<?xml version="1.0" encoding="utf-8"?>
<!-- Generator: Adobe Illustrator 19.0.0, SVG Export Plug-In . SVG Version: 6.00 Build 0)  -->
<svg version="1.1" id="Layer_1" xmlns="http://www.w3.org/2000/svg" xmlns:xlink="http://www.w3.org/1999/xlink" x="0px" y="0px"
	 viewBox="-209 359 193 75" style="enable-background:new -209 359 193 75;" xml:space="preserve">
<style type="text/css">
	.st0{display:none;}
	.st1{fill:#EB3440;}
	.st2{display:inline;fill:#EB3440;}
	.st3{fill:url(#SVGID_1_);}
	.st4{fill:url(#SVGID_2_);}
	.st5{fill:url(#SVGID_3_);}
	.st6{fill:#DBDCDD;}
	.st7{font-family:'MyriadPro-Regular';}
	.st8{font-size:25.7198px;}
	.st9{fill:url(#SVGID_4_);}
	.st10{fill:url(#SVGID_5_);}
	.st11{fill:url(#SVGID_6_);}
	.st12{fill:url(#SVGID_7_);}
	.st13{fill:url(#SVGID_8_);}
	.st14{fill:url(#SVGID_9_);}
	.st15{fill:url(#SVGID_10_);}
	.st16{fill:url(#SVGID_11_);}
	.st17{fill:url(#SVGID_12_);}
	.st18{fill:url(#SVGID_13_);}
	.st19{fill:url(#SVGID_14_);}
	.st20{fill:url(#SVGID_15_);}
</style>
<g>
	<g class="st0">
		<path class="st1" d="M-146,430.3l-0.3,1.9h-0.3l0.3-1.9l-1.3-2.7h0.3c0,0,0.1,0,0.1,0c0,0,0,0,0,0.1l1,2.2c0,0,0,0.1,0,0.1
			c0,0,0,0.1,0,0.1c0,0,0-0.1,0.1-0.1c0,0,0-0.1,0.1-0.1l1.6-2.2c0,0,0,0,0.1-0.1c0,0,0,0,0.1,0h0.3L-146,430.3z"/>
		<path class="st1" d="M-139.8,429.5c0,0.4-0.1,0.8-0.2,1.1c-0.1,0.3-0.3,0.6-0.5,0.8c-0.2,0.2-0.5,0.4-0.8,0.5
			c-0.3,0.1-0.6,0.2-1,0.2c-0.3,0-0.5,0-0.8-0.1c-0.2-0.1-0.4-0.2-0.6-0.4c-0.2-0.2-0.3-0.4-0.4-0.6c-0.1-0.2-0.1-0.5-0.1-0.8
			c0-0.4,0.1-0.8,0.2-1.1c0.1-0.3,0.3-0.6,0.5-0.9c0.2-0.2,0.5-0.4,0.8-0.6c0.3-0.1,0.6-0.2,1-0.2c0.3,0,0.5,0,0.8,0.1
			c0.2,0.1,0.4,0.2,0.6,0.4c0.2,0.2,0.3,0.4,0.4,0.6C-139.9,428.9-139.8,429.2-139.8,429.5z M-140.2,429.5c0-0.3,0-0.5-0.1-0.7
			c-0.1-0.2-0.2-0.4-0.3-0.5c-0.1-0.2-0.3-0.3-0.5-0.3c-0.2-0.1-0.4-0.1-0.6-0.1c-0.3,0-0.6,0.1-0.8,0.2c-0.3,0.1-0.5,0.3-0.7,0.5
			c-0.2,0.2-0.3,0.5-0.4,0.8c-0.1,0.3-0.2,0.6-0.2,1c0,0.3,0,0.5,0.1,0.7c0.1,0.2,0.2,0.4,0.3,0.5c0.1,0.1,0.3,0.3,0.5,0.3
			c0.2,0.1,0.4,0.1,0.6,0.1c0.3,0,0.6-0.1,0.8-0.2c0.3-0.1,0.5-0.3,0.7-0.5c0.2-0.2,0.3-0.5,0.4-0.8
			C-140.2,430.2-140.2,429.9-140.2,429.5z"/>
		<path class="st1" d="M-137.5,431.9c0.2,0,0.4,0,0.6-0.1c0.2-0.1,0.3-0.2,0.5-0.3c0.1-0.1,0.2-0.3,0.3-0.5c0.1-0.2,0.1-0.4,0.2-0.6
			l0.4-2.8h0.3l-0.4,2.8c0,0.3-0.1,0.5-0.2,0.7c-0.1,0.2-0.2,0.4-0.4,0.6c-0.2,0.2-0.4,0.3-0.6,0.4c-0.2,0.1-0.5,0.1-0.7,0.1
			c-0.2,0-0.4,0-0.6-0.1c-0.2-0.1-0.3-0.2-0.5-0.3c-0.1-0.1-0.2-0.3-0.3-0.5c-0.1-0.2-0.1-0.4-0.1-0.6c0-0.1,0-0.2,0-0.3l0.4-2.8
			h0.3l-0.4,2.8c0,0,0,0.1,0,0.1c0,0,0,0.1,0,0.1c0,0.2,0,0.3,0.1,0.5c0.1,0.2,0.1,0.3,0.2,0.4c0.1,0.1,0.2,0.2,0.4,0.3
			C-137.8,431.9-137.7,431.9-137.5,431.9z"/>
		<path class="st1" d="M-133.8,430.1l-0.3,2.1h-0.3l0.6-4.6h1.1c0.5,0,0.8,0.1,1,0.3c0.2,0.2,0.3,0.4,0.3,0.8c0,0.2,0,0.4-0.1,0.5
			c-0.1,0.2-0.2,0.3-0.3,0.4c-0.1,0.1-0.3,0.2-0.5,0.3c-0.2,0.1-0.4,0.1-0.6,0.2c0,0,0.1,0.1,0.1,0.1l1.3,2h-0.3
			c-0.1,0-0.1,0-0.2-0.1l-1.2-1.9c0,0-0.1-0.1-0.1-0.1c0,0-0.1,0-0.2,0H-133.8z M-133.5,427.8l-0.3,2h0.8c0.2,0,0.4,0,0.6-0.1
			c0.2-0.1,0.3-0.1,0.4-0.2c0.1-0.1,0.2-0.2,0.3-0.4c0.1-0.1,0.1-0.3,0.1-0.5c0-0.3-0.1-0.5-0.3-0.6c-0.2-0.1-0.5-0.2-0.8-0.2
			H-133.5z"/>
		<path class="st1" d="M-126.6,428.1C-126.6,428.2-126.6,428.2-126.6,428.1c-0.1,0.1-0.1,0-0.2,0c0,0-0.1-0.1-0.2-0.1
			c-0.1,0-0.2-0.1-0.3-0.1c-0.1,0-0.2-0.1-0.4-0.1c-0.2,0-0.3,0-0.5,0.1c-0.1,0.1-0.3,0.1-0.3,0.2c-0.1,0.1-0.2,0.2-0.2,0.3
			c0,0.1-0.1,0.3-0.1,0.4c0,0.1,0,0.2,0.1,0.3c0.1,0.1,0.1,0.2,0.2,0.2c0.1,0.1,0.2,0.1,0.3,0.2c0.1,0,0.2,0.1,0.4,0.1
			c0.1,0,0.2,0.1,0.4,0.1c0.1,0.1,0.2,0.1,0.3,0.2c0.1,0.1,0.2,0.2,0.2,0.3c0.1,0.1,0.1,0.2,0.1,0.4c0,0.2,0,0.4-0.1,0.6
			c-0.1,0.2-0.2,0.4-0.3,0.5c-0.1,0.1-0.3,0.3-0.5,0.3c-0.2,0.1-0.4,0.1-0.7,0.1c-0.3,0-0.5-0.1-0.7-0.2c-0.2-0.1-0.4-0.3-0.5-0.4
			l0.1-0.1c0,0,0.1,0,0.1,0c0,0,0,0,0.1,0c0,0,0.1,0.1,0.1,0.1c0,0,0.1,0.1,0.1,0.1c0.1,0,0.1,0.1,0.2,0.1c0.1,0,0.2,0.1,0.3,0.1
			c0.1,0,0.2,0,0.3,0c0.2,0,0.4,0,0.5-0.1c0.2-0.1,0.3-0.1,0.4-0.3c0.1-0.1,0.2-0.2,0.3-0.4c0.1-0.1,0.1-0.3,0.1-0.5
			c0-0.1,0-0.2-0.1-0.3c-0.1-0.1-0.1-0.2-0.2-0.2c-0.1-0.1-0.2-0.1-0.3-0.2c-0.1,0-0.2-0.1-0.4-0.1c-0.1,0-0.2-0.1-0.4-0.1
			c-0.1-0.1-0.2-0.1-0.3-0.2c-0.1-0.1-0.2-0.2-0.2-0.3c-0.1-0.1-0.1-0.2-0.1-0.4c0-0.2,0-0.3,0.1-0.5c0.1-0.2,0.2-0.3,0.3-0.4
			c0.1-0.1,0.3-0.2,0.5-0.3c0.2-0.1,0.4-0.1,0.6-0.1c0.2,0,0.4,0,0.6,0.1c0.2,0.1,0.3,0.2,0.5,0.4L-126.6,428.1z"/>
		<path class="st1" d="M-125.6,431.9h2.1l0,0.3h-2.4l0.6-4.6h0.3L-125.6,431.9z"/>
		<path class="st1" d="M-118.7,429.5c0,0.4-0.1,0.8-0.2,1.1c-0.1,0.3-0.3,0.6-0.5,0.8c-0.2,0.2-0.5,0.4-0.8,0.5
			c-0.3,0.1-0.6,0.2-1,0.2c-0.3,0-0.5,0-0.8-0.1c-0.2-0.1-0.4-0.2-0.6-0.4c-0.2-0.2-0.3-0.4-0.4-0.6c-0.1-0.2-0.1-0.5-0.1-0.8
			c0-0.4,0.1-0.8,0.2-1.1c0.1-0.3,0.3-0.6,0.5-0.9c0.2-0.2,0.5-0.4,0.8-0.6c0.3-0.1,0.6-0.2,1-0.2c0.3,0,0.5,0,0.8,0.1
			c0.2,0.1,0.4,0.2,0.6,0.4c0.2,0.2,0.3,0.4,0.4,0.6C-118.7,428.9-118.7,429.2-118.7,429.5z M-119.1,429.5c0-0.3,0-0.5-0.1-0.7
			c-0.1-0.2-0.2-0.4-0.3-0.5c-0.1-0.2-0.3-0.3-0.5-0.3c-0.2-0.1-0.4-0.1-0.6-0.1c-0.3,0-0.6,0.1-0.8,0.2c-0.3,0.1-0.5,0.3-0.7,0.5
			c-0.2,0.2-0.3,0.5-0.4,0.8c-0.1,0.3-0.2,0.6-0.2,1c0,0.3,0,0.5,0.1,0.7c0.1,0.2,0.2,0.4,0.3,0.5c0.1,0.1,0.3,0.3,0.5,0.3
			c0.2,0.1,0.4,0.1,0.6,0.1c0.3,0,0.6-0.1,0.8-0.2c0.3-0.1,0.5-0.3,0.7-0.5c0.2-0.2,0.3-0.5,0.4-0.8
			C-119.1,430.2-119.1,429.9-119.1,429.5z"/>
		<path class="st1" d="M-116.1,432c0.2,0,0.3,0,0.4,0c0.1,0,0.2,0,0.4-0.1c0.1,0,0.2-0.1,0.3-0.1c0.1,0,0.2-0.1,0.3-0.2l0.2-1.2
			h-0.8c-0.1,0-0.1,0-0.1-0.1c0,0,0,0,0,0c0,0,0,0,0-0.1c0,0,0-0.1,0-0.1h1.2l-0.2,1.6c-0.1,0.1-0.2,0.2-0.4,0.2
			c-0.1,0.1-0.3,0.1-0.4,0.2c-0.1,0-0.3,0.1-0.5,0.1c-0.2,0-0.3,0-0.5,0c-0.3,0-0.6,0-0.8-0.1c-0.2-0.1-0.4-0.2-0.6-0.4
			c-0.2-0.2-0.3-0.4-0.4-0.6c-0.1-0.2-0.1-0.5-0.1-0.8c0-0.4,0.1-0.8,0.2-1.1c0.1-0.3,0.3-0.6,0.5-0.9c0.2-0.2,0.5-0.4,0.8-0.5
			c0.3-0.1,0.7-0.2,1-0.2c0.2,0,0.3,0,0.5,0c0.1,0,0.3,0.1,0.4,0.1c0.1,0,0.2,0.1,0.3,0.2c0.1,0.1,0.2,0.1,0.3,0.2l-0.1,0.1
			c0,0-0.1,0-0.1,0c0,0,0,0-0.1,0c0,0,0,0-0.1-0.1c0,0-0.1-0.1-0.1-0.1c0,0-0.1-0.1-0.2-0.1c-0.1,0-0.1-0.1-0.2-0.1
			c-0.1,0-0.2-0.1-0.3-0.1c-0.1,0-0.2,0-0.4,0c-0.3,0-0.6,0.1-0.9,0.2c-0.3,0.1-0.5,0.3-0.7,0.5c-0.2,0.2-0.3,0.5-0.4,0.8
			c-0.1,0.3-0.2,0.6-0.2,1c0,0.3,0,0.5,0.1,0.7c0.1,0.2,0.2,0.4,0.3,0.6c0.1,0.2,0.3,0.3,0.5,0.3C-116.5,431.9-116.3,432-116.1,432z
			"/>
		<path class="st1" d="M-110,432.2h-0.3c0,0-0.1,0-0.1,0c0,0,0,0,0-0.1l-0.3-1.3h-2.2l-0.7,1.3c0,0,0,0-0.1,0.1c0,0-0.1,0-0.1,0
			h-0.3l2.4-4.6h0.3L-110,432.2z M-112.7,430.5h2l-0.6-2.3c0,0,0-0.1,0-0.1c0,0,0-0.1,0-0.1c0,0,0,0,0,0.1c0,0,0,0.1,0,0.1
			c0,0,0,0.1,0,0.1c0,0,0,0,0,0L-112.7,430.5z"/>
		<path class="st1" d="M-108.4,427.6C-108.4,427.6-108.4,427.6-108.4,427.6l2.4,4c0,0,0-0.1,0-0.1c0,0,0-0.1,0-0.1l0.5-3.9h0.3
			l-0.6,4.6h-0.2c-0.1,0-0.1,0-0.1-0.1l-2.3-4l0,0.1l-0.5,3.9h-0.3l0.6-4.6L-108.4,427.6C-108.5,427.6-108.5,427.6-108.4,427.6z"/>
		<path class="st2" d="M-99.8,432.2h-0.3l0.3-2.2h-2.8l-0.3,2.2h-0.3l0.6-4.6h0.3l-0.3,2.1h2.8l0.3-2.1h0.3L-99.8,432.2z"/>
		<path class="st2" d="M-95.2,427.8h-2.3l-0.2,1.9h1.9l0,0.3h-1.9l-0.2,1.9h2.3l0,0.3h-2.7l0.6-4.6h2.7L-95.2,427.8z"/>
		<path class="st1" d="M-94,430.1l-0.3,2.1h-0.3l0.6-4.6h1.1c0.5,0,0.8,0.1,1,0.3c0.2,0.2,0.3,0.4,0.3,0.8c0,0.2,0,0.4-0.1,0.5
			c-0.1,0.2-0.2,0.3-0.3,0.4c-0.1,0.1-0.3,0.2-0.5,0.3c-0.2,0.1-0.4,0.1-0.6,0.2c0,0,0.1,0.1,0.1,0.1l1.3,2h-0.3
			c-0.1,0-0.1,0-0.2-0.1l-1.2-1.9c0,0-0.1-0.1-0.1-0.1c0,0-0.1,0-0.2,0H-94z M-93.7,427.8l-0.3,2h0.8c0.2,0,0.4,0,0.6-0.1
			c0.2-0.1,0.3-0.1,0.4-0.2c0.1-0.1,0.2-0.2,0.3-0.4c0.1-0.1,0.1-0.3,0.1-0.5c0-0.3-0.1-0.5-0.3-0.6c-0.2-0.1-0.5-0.2-0.8-0.2H-93.7
			z"/>
		<path class="st1" d="M-87.5,427.8h-2.3l-0.2,1.9h1.9l0,0.3h-1.9l-0.2,1.9h2.3l0,0.3h-2.7l0.6-4.6h2.7L-87.5,427.8z"/>
	</g>
	<g>
		
			<linearGradient id="SVGID_1_" gradientUnits="userSpaceOnUse" x1="-73.3226" y1="340.2571" x2="-152.2878" y2="416.937" gradientTransform="matrix(0.9117 0.4108 -0.4108 0.9117 149.5329 84.2397)">
			<stop  offset="0.2843" style="stop-color:#A2238D"/>
			<stop  offset="0.5414" style="stop-color:#B73B78"/>
			<stop  offset="0.9287" style="stop-color:#DD6551"/>
		</linearGradient>
		<path class="st3" d="M-148.1,391.3c-4.3-1.3-9.2,0.9-10.3,5.9c0.7-1.3,3.1-0.9,3.3,0.5c0.3,2.3-3.2,2.1-5.3,2.4
			c-1.9,0.3-2.8,1.7-3.2,3c2.2-1.4,5,0.6,7.3,1.5c9.9,4.1,14-4.8,13.2-9.9C-143.1,394.8-145.5,392.1-148.1,391.3z"/>
	</g>
	<g>
		
			<linearGradient id="SVGID_2_" gradientUnits="userSpaceOnUse" x1="-73.5395" y1="340.0356" x2="-152.5039" y2="416.7148" gradientTransform="matrix(0.9117 0.4108 -0.4108 0.9117 149.5329 84.2397)">
			<stop  offset="0.2843" style="stop-color:#A2238D"/>
			<stop  offset="0.5414" style="stop-color:#B73B78"/>
			<stop  offset="0.9287" style="stop-color:#DD6551"/>
		</linearGradient>
		<path class="st4" d="M-126.6,398.6c-1.5-0.6-3-1.7-4.3-3.2c-0.3-0.4-0.9-0.5-1.3-0.4l-5.1,1.9c-0.4,0.1-0.8-0.1-0.9-0.5l-2.1-5.6
			c-0.2-0.4,0-0.8,0.4-1l5.1-1.9c0.5-0.2,0.8-0.6,0.8-1.2c0-1.7,0.2-3.2,0.8-4.5c-0.6-0.6-1.3-1.1-1.9-1.7c-0.8,1.6-1.2,3.4-1.3,5.4
			l-4.3,1.6c-1.6,0.6-2.4,2.4-1.8,4.1l2.1,5.6c0.6,1.6,2.4,2.5,4,1.9l4.3-1.6c1.6,1.7,3.4,2.9,5.3,3.5
			C-126.8,400.2-126.7,399.4-126.6,398.6z"/>
	</g>
	
		<linearGradient id="SVGID_3_" gradientUnits="userSpaceOnUse" x1="-73.2826" y1="340.3044" x2="-152.2439" y2="416.9805" gradientTransform="matrix(0.9117 0.4108 -0.4108 0.9117 149.5329 84.2397)">
		<stop  offset="0.2843" style="stop-color:#A2238D"/>
		<stop  offset="0.5414" style="stop-color:#B73B78"/>
		<stop  offset="0.9287" style="stop-color:#DD6551"/>
	</linearGradient>
	<path class="st5" d="M-111.1,410.2l6.3-9.5c4.5-1.3,7.9-2.9,8.3-3c0,0,0,0,0,0c17.1-8.2,26.9-19.8,30.4-24.4
		c2.2-2.9,2.9-5.4,2.2-7.4c0,0,0,0,0,0c-1.1-3-5.8-3.9-6.5-4c-5.7-1.1-20.8-3.3-38.9,1.9c0,0,0,0,0,0c-0.4,0.1-4,1.2-8.2,3.2
		l-11-2.9c-0.4-0.1-0.8-0.1-1.2,0.1l-11.5,4.6c-0.4,0.2-0.8,0.5-1,0.9c-0.1,0.2-0.1,0.4-0.2,0.5c-0.1,0.6,0.1,1.2,0.5,1.7
		c0.1,0.1,6.9,7.5,15,14c1.2,0.9,2.3,1.8,3.4,2.6l0.8,0.6c1.7,1.2,3.4,2.3,4.9,3.2c4.5,2.7,8.3,3.9,11.3,3.6c0.9,0,1.7-0.2,2.5-0.5
		c2.8-1.1,4.8-3.5,5.2-6.4c0.2-1.4,0.1-2.7-0.4-4c-0.7-1.8-2-3.3-3.7-4.2c0.7-1.8,0.7-3.8,0-5.7c-0.5-1.3-1.3-2.4-2.3-3.3
		c-2.3-1.9-5.4-2.4-8.2-1.4c-0.8,0.3-1.5,0.7-2.2,1.2c-1.8,1.2-4.5,4.5-7,13.3c0.7,0.5,1.4,1,2.1,1.5c1.7-6.5,4.2-11.4,6.3-12.8
		c0,0,0.1,0,0.1-0.1c0.5-0.4,1-0.7,1.6-0.9c2-0.7,4.2-0.4,5.8,0.9c0.7,0.6,1.3,1.4,1.6,2.3c0.6,1.6,0.4,3.3-0.4,4.8
		c-0.2,0.3-0.2,0.7-0.1,1c0,0,0,0,0,0c0.1,0.3,0.4,0.6,0.8,0.7c1.6,0.5,2.9,1.7,3.5,3.3c0.3,0.9,0.4,1.8,0.3,2.8
		c-0.3,2.1-1.7,3.8-3.7,4.5c-0.6,0.2-1.2,0.3-1.8,0.4c0,0,0,0,0,0c-2.5,0.2-5.8-0.9-9.9-3.3c-2.7-1.6-5.6-3.7-8.8-6.2
		c-6.8-5.5-12.7-11.6-14.3-13.3l10.6-4.2l11.2,3c0.3,0.1,0.6,0,0.8-0.1c4.2-2,7.8-3.1,8.3-3.3c17.6-5,32.3-2.9,37.7-1.8
		c0,0,0,0,0.1,0c1,0.2,4.1,1,4.6,2.5c0.6,1.5-0.9,3.8-1.9,5c-3.3,4.4-12.9,15.6-29.5,23.6c-0.4,0.2-3.9,1.7-8.4,3
		c-0.3,0.1-0.5,0.3-0.7,0.5l-6.4,9.7l-10.7,3.9c0.1-2.5,0.5-12.1,2.2-21.3c-0.7-0.5-1.6-1.1-2.2-1.5c-2.2,11.1-2.5,23.2-2.5,23.4
		c0,0.3,0,0.5,0.1,0.8c0.1,0.3,0.3,0.6,0.6,0.8c0.1,0.1,0.3,0.2,0.5,0.3c0.4,0.2,0.9,0.2,1.4,0.1l11.6-4.2
		C-111.7,410.8-111.3,410.5-111.1,410.2z"/>
	<path class="st6" d="M-120.5,386.4c0.1-0.5,0.3-1,0.4-1.4c-0.7-0.5-1.4-1-2.1-1.5c-0.1,0.5-0.3,0.9-0.4,1.4
		C-121.9,385.4-121.2,385.9-120.5,386.4z"/>
	<path class="st6" d="M-121.8,392.6c0.1-0.4,0.2-0.9,0.2-1.3c-0.7-0.5-1.6-1.1-2.2-1.5c-0.1,0.4-0.2,0.9-0.3,1.3
		C-123.3,391.6-122.5,392.1-121.8,392.6z"/>
</g>
<g>
	<text transform="matrix(1 0 0 1 -182.3965 429.873)" class="st7 st8">Heitor Dragoi</text>
	<g>
		<linearGradient id="SVGID_4_" gradientUnits="userSpaceOnUse" x1="-180.4414" y1="423.8276" x2="-39.3947" y2="423.8276">
			<stop  offset="0" style="stop-color:#A2238D"/>
			<stop  offset="0.3706" style="stop-color:#B73B78"/>
			<stop  offset="0.9287" style="stop-color:#DD6551"/>
		</linearGradient>
		<path class="st9" d="M-178.2,412.5v7.3h8.4v-7.3h2.3v17.3h-2.3v-8.1h-8.4v8.1h-2.2v-17.3H-178.2z"/>
		<linearGradient id="SVGID_5_" gradientUnits="userSpaceOnUse" x1="-180.4414" y1="423.8276" x2="-39.3947" y2="423.8276">
			<stop  offset="0" style="stop-color:#A2238D"/>
			<stop  offset="0.3706" style="stop-color:#B73B78"/>
			<stop  offset="0.9287" style="stop-color:#DD6551"/>
		</linearGradient>
		<path class="st10" d="M-162.5,424.1c0.1,3.1,2,4.3,4.3,4.3c1.6,0,2.6-0.3,3.4-0.6l0.4,1.6c-0.8,0.4-2.2,0.8-4.1,0.8
			c-3.8,0-6.1-2.5-6.1-6.3c0-3.8,2.2-6.7,5.8-6.7c4.1,0,5.1,3.6,5.1,5.9c0,0.5-0.1,0.8-0.1,1.1H-162.5z M-155.9,422.4
			c0-1.4-0.6-3.7-3.1-3.7c-2.3,0-3.3,2.1-3.5,3.7H-155.9z"/>
		<linearGradient id="SVGID_6_" gradientUnits="userSpaceOnUse" x1="-180.4414" y1="423.8276" x2="-39.3947" y2="423.8276">
			<stop  offset="0" style="stop-color:#A2238D"/>
			<stop  offset="0.3706" style="stop-color:#B73B78"/>
			<stop  offset="0.9287" style="stop-color:#DD6551"/>
		</linearGradient>
		<path class="st11" d="M-148.3,413.9c0,0.8-0.5,1.4-1.4,1.4c-0.8,0-1.4-0.6-1.4-1.4c0-0.8,0.6-1.4,1.4-1.4
			C-148.9,412.5-148.3,413.1-148.3,413.9z M-150.9,429.9v-12.5h2.3v12.5H-150.9z"/>
		<linearGradient id="SVGID_7_" gradientUnits="userSpaceOnUse" x1="-180.4414" y1="423.8276" x2="-39.3947" y2="423.8276">
			<stop  offset="0" style="stop-color:#A2238D"/>
			<stop  offset="0.3706" style="stop-color:#B73B78"/>
			<stop  offset="0.9287" style="stop-color:#DD6551"/>
		</linearGradient>
		<path class="st12" d="M-142.1,413.8v3.6h3.2v1.7h-3.2v6.7c0,1.5,0.4,2.4,1.7,2.4c0.6,0,1-0.1,1.3-0.2l0.1,1.7
			c-0.4,0.2-1.1,0.3-2,0.3c-1.1,0-1.9-0.3-2.4-1c-0.6-0.7-0.9-1.8-0.9-3.2v-6.8h-1.9v-1.7h1.9v-3L-142.1,413.8z"/>
		<linearGradient id="SVGID_8_" gradientUnits="userSpaceOnUse" x1="-180.4414" y1="423.8276" x2="-39.3947" y2="423.8276">
			<stop  offset="0" style="stop-color:#A2238D"/>
			<stop  offset="0.3706" style="stop-color:#B73B78"/>
			<stop  offset="0.9287" style="stop-color:#DD6551"/>
		</linearGradient>
		<path class="st13" d="M-125.1,423.5c0,4.6-3.2,6.6-6.2,6.6c-3.4,0-6-2.5-6-6.4c0-4.2,2.7-6.6,6.2-6.6
			C-127.5,417.1-125.1,419.7-125.1,423.5z M-134.9,423.7c0,2.7,1.6,4.8,3.8,4.8c2.2,0,3.8-2,3.8-4.8c0-2.1-1.1-4.8-3.7-4.8
			C-133.8,418.8-134.9,421.3-134.9,423.7z"/>
		<linearGradient id="SVGID_9_" gradientUnits="userSpaceOnUse" x1="-180.4414" y1="423.8276" x2="-39.3947" y2="423.8276">
			<stop  offset="0" style="stop-color:#A2238D"/>
			<stop  offset="0.3706" style="stop-color:#B73B78"/>
			<stop  offset="0.9287" style="stop-color:#DD6551"/>
		</linearGradient>
		<path class="st14" d="M-122.2,421.3c0-1.5,0-2.7-0.1-3.9h2l0.1,2.4h0.1c0.6-1.7,1.9-2.7,3.4-2.7c0.3,0,0.4,0,0.6,0.1v2.1
			c-0.2-0.1-0.5-0.1-0.8-0.1c-1.6,0-2.7,1.2-3,2.9c-0.1,0.3-0.1,0.7-0.1,1.1v6.6h-2.2V421.3z"/>
		<linearGradient id="SVGID_10_" gradientUnits="userSpaceOnUse" x1="-180.4414" y1="423.8276" x2="-39.3947" y2="423.8276">
			<stop  offset="0" style="stop-color:#A2238D"/>
			<stop  offset="0.3706" style="stop-color:#B73B78"/>
			<stop  offset="0.9287" style="stop-color:#DD6551"/>
		</linearGradient>
		<path class="st15" d="M-108.3,412.8c1.4-0.2,3-0.4,4.8-0.4c3.2,0,5.5,0.7,7,2.2c1.5,1.4,2.4,3.4,2.4,6.2c0,2.8-0.9,5.1-2.5,6.7
			c-1.6,1.6-4.3,2.5-7.7,2.5c-1.6,0-2.9-0.1-4.1-0.2V412.8z M-106,428.1c0.6,0.1,1.4,0.1,2.3,0.1c4.8,0,7.4-2.7,7.4-7.4
			c0-4.1-2.3-6.7-7-6.7c-1.2,0-2,0.1-2.6,0.2V428.1z"/>
		<linearGradient id="SVGID_11_" gradientUnits="userSpaceOnUse" x1="-180.4414" y1="423.8276" x2="-39.3947" y2="423.8276">
			<stop  offset="0" style="stop-color:#A2238D"/>
			<stop  offset="0.3706" style="stop-color:#B73B78"/>
			<stop  offset="0.9287" style="stop-color:#DD6551"/>
		</linearGradient>
		<path class="st16" d="M-91.2,421.3c0-1.5,0-2.7-0.1-3.9h2l0.1,2.4h0.1c0.6-1.7,1.9-2.7,3.4-2.7c0.3,0,0.4,0,0.6,0.1v2.1
			c-0.2-0.1-0.5-0.1-0.8-0.1c-1.6,0-2.7,1.2-3,2.9c-0.1,0.3-0.1,0.7-0.1,1.1v6.6h-2.2V421.3z"/>
		<linearGradient id="SVGID_12_" gradientUnits="userSpaceOnUse" x1="-180.4414" y1="423.8276" x2="-39.3947" y2="423.8276">
			<stop  offset="0" style="stop-color:#A2238D"/>
			<stop  offset="0.3706" style="stop-color:#B73B78"/>
			<stop  offset="0.9287" style="stop-color:#DD6551"/>
		</linearGradient>
		<path class="st17" d="M-75.9,429.9l-0.2-1.6h-0.1c-0.7,1-2,1.9-3.8,1.9c-2.5,0-3.8-1.8-3.8-3.6c0-3,2.7-4.7,7.5-4.6v-0.3
			c0-1-0.3-2.9-2.8-2.9c-1.2,0-2.4,0.4-3.2,0.9l-0.5-1.5c1-0.7,2.5-1.1,4.1-1.1c3.8,0,4.7,2.6,4.7,5.1v4.7c0,1.1,0.1,2.1,0.2,3
			H-75.9z M-76.3,423.5c-2.5-0.1-5.3,0.4-5.3,2.8c0,1.5,1,2.2,2.1,2.2c1.6,0,2.6-1,3-2.1c0.1-0.2,0.1-0.5,0.1-0.7V423.5z"/>
		<linearGradient id="SVGID_13_" gradientUnits="userSpaceOnUse" x1="-180.4414" y1="423.8276" x2="-39.3947" y2="423.8276">
			<stop  offset="0" style="stop-color:#A2238D"/>
			<stop  offset="0.3706" style="stop-color:#B73B78"/>
			<stop  offset="0.9287" style="stop-color:#DD6551"/>
		</linearGradient>
		<path class="st18" d="M-59.7,417.4c-0.1,0.9-0.1,1.9-0.1,3.4v7.2c0,2.9-0.6,4.6-1.8,5.7c-1.2,1.1-3,1.5-4.5,1.5
			c-1.5,0-3.1-0.4-4.1-1l0.6-1.7c0.8,0.5,2.1,1,3.7,1c2.3,0,4-1.2,4-4.3v-1.4h-0.1c-0.7,1.2-2,2.1-4,2.1c-3.1,0-5.3-2.6-5.3-6.1
			c0-4.2,2.8-6.6,5.6-6.6c2.2,0,3.3,1.1,3.9,2.2h0.1l0.1-1.9H-59.7z M-62,422.3c0-0.4,0-0.7-0.1-1c-0.4-1.3-1.5-2.4-3.2-2.4
			c-2.2,0-3.7,1.8-3.7,4.7c0,2.4,1.2,4.5,3.7,4.5c1.4,0,2.6-0.9,3.1-2.3c0.1-0.4,0.2-0.8,0.2-1.2V422.3z"/>
		<linearGradient id="SVGID_14_" gradientUnits="userSpaceOnUse" x1="-180.4414" y1="423.8276" x2="-39.3947" y2="423.8276">
			<stop  offset="0" style="stop-color:#A2238D"/>
			<stop  offset="0.3706" style="stop-color:#B73B78"/>
			<stop  offset="0.9287" style="stop-color:#DD6551"/>
		</linearGradient>
		<path class="st19" d="M-44.8,423.5c0,4.6-3.2,6.6-6.2,6.6c-3.4,0-6-2.5-6-6.4c0-4.2,2.7-6.6,6.2-6.6
			C-47.2,417.1-44.8,419.7-44.8,423.5z M-54.6,423.7c0,2.7,1.6,4.8,3.8,4.8c2.2,0,3.8-2,3.8-4.8c0-2.1-1.1-4.8-3.7-4.8
			S-54.6,421.3-54.6,423.7z"/>
		<linearGradient id="SVGID_15_" gradientUnits="userSpaceOnUse" x1="-180.4414" y1="423.8276" x2="-39.3947" y2="423.8276">
			<stop  offset="0" style="stop-color:#A2238D"/>
			<stop  offset="0.3706" style="stop-color:#B73B78"/>
			<stop  offset="0.9287" style="stop-color:#DD6551"/>
		</linearGradient>
		<path class="st20" d="M-39.4,413.9c0,0.8-0.5,1.4-1.4,1.4c-0.8,0-1.4-0.6-1.4-1.4c0-0.8,0.6-1.4,1.4-1.4
			C-39.9,412.5-39.4,413.1-39.4,413.9z M-41.9,429.9v-12.5h2.3v12.5H-41.9z"/>
	</g>
</g>
</svg>
